\begin{tikzpicture}
	\begin{pgfonlayer}{nodelayer}
		\node [style=none] (0) at (0, 5) {};
		\node [style=none] (1) at (0, -2) {};
		\node [style=none] (2) at (5, 0) {};
		\node [style=none] (3) at (-5.25, 0) {};
		\node [style=none] (4) at (0.5, 5) {$J$};
		\node [style=none] (5) at (5, -0.5) {$\Delta-\frac{d}{2}$};
		\node [style=point] (6) at (2, 2) {};
		\node [style=point] (7) at (4, 4) {};
		\node [style={sh_point}] (8) at (-2, 2) {};
		\node [style={sh_point}] (9) at (-4, 4) {};
		\node [style=none] (10) at (0, 1) {};
		\node [style=none] (11) at (5.5, 5.5) {};
		\node [style=none] (12) at (-5.5, 5.5) {};
		\node [style=point] (13) at (4, 2) {};
		\node [style=point] (14) at (6, 4) {};
		\node [style={sh_point}] (15) at (-6, 4) {};
		\node [style={sh_point}] (16) at (-4, 2) {};
		\node [style=none] (17) at (7, 5) {};
		\node [style=none] (18) at (-7, 5) {};
		\node [style=none] (19) at (-3, 1) {};
		\node [style=none] (20) at (3, 1) {};
		\node [style=none] (21) at (-2.25, 0.25) {};
		\node [style=none] (22) at (2.25, 0.25) {};
		\node [style=none] (23) at (-7, 2) {};
		\node [style=none] (24) at (-7, 4) {};
		\node [style=none] (25) at (7, 4) {};
		\node [style=none] (26) at (7, 2) {};
		\node [style=none] (27) at (0.5, 4) {4};
		\node [style=none] (28) at (0.5, 2) {2};
		\node [style=none] (30) at (2, 2.5) {$T$};
		\node [style=none] (31) at (-7, 3) {};
		\node [style=none] (32) at (7, 3) {};
		\node [style={lr_point}] (33) at (5, 3) {};
		\node [style={lr_point}] (34) at (3, 3) {};
		\node [style={sh_lr_point}] (36) at (-3, 3) {};
		\node [style={sh_lr_point}] (37) at (-5, 3) {};
		\node [style=none] (38) at (0.5, 3) {${\color{red}3}$};
		\node [style=none] (39) at (0, 4) {};
		\node [style=none] (40) at (0.175, 4) {};
		\node [style=none] (41) at (0, 3) {};
		\node [style=none] (42) at (0.175, 3) {};
		\node [style=none] (43) at (0, 2) {};
		\node [style=none] (44) at (0.175, 2) {};
	\end{pgfonlayer}
	\begin{pgfonlayer}{edgelayer}
		\draw [style=arrow] (3.center) to (2.center);
		\draw [style=arrow] (1.center) to (0.center);
		\draw (11.center) to (7);
		\draw (7) to (6);
		\draw [in=0, out=-135] (6) to (10.center);
		\draw [in=315, out=180] (10.center) to (8);
		\draw (8) to (9);
		\draw (9) to (12.center);
		\draw (18.center) to (15);
		\draw (15) to (16);
		\draw (16) to (19.center);
		\draw (20.center) to (13);
		\draw (17.center) to (14);
		\draw (14) to (13);
		\draw [style={dashed_st}] (20.center) to (22.center);
		\draw [style={dashed_st}] (19.center) to (21.center);
		\draw [style={dashed_grey}] (24.center) to (25.center);
		\draw [style={dashed_grey}] (26.center) to (23.center);
		\draw [style={dashed_grey}] (31.center) to (32.center);
		\draw (39.center) to (40.center);
		\draw (41.center) to (42.center);
		\draw (43.center) to (44.center);
	\end{pgfonlayer}
\end{tikzpicture}
